3.442676496887207236e+02
3.129762866973877067e+01
1.888533189773559684e+01
1.705702268600463967e+01
1.593350099563598654e+01
1.478833984375000021e+01
1.379751581192016552e+01
1.299323015213012766e+01
1.219469891548156681e+01
1.158683917999267621e+01
1.111225746154785199e+01
1.071802352905273459e+01
1.026425118446350027e+01
1.001352672576904368e+01
9.740722064971924610e+00
9.429946937561034304e+00
9.268736581802368590e+00
9.085709209442137890e+00
8.937879190444945721e+00
8.759148702621459393e+00
8.687908310890197328e+00
8.668840703964233896e+00
8.510976891517639586e+00
8.466145009994507475e+00
8.314168820381164338e+00
8.232164249420165447e+00
8.006568255424499014e+00
7.863804883956909464e+00
7.828639636039733674e+00
7.825864887237548473e+00
7.735294961929321644e+00
7.736550836563110600e+00
7.727505841255188024e+00
7.703518285751342454e+00
7.581464619636535396e+00
7.632834730148315039e+00
7.376384391784667649e+00
7.368418011665344380e+00
7.265857257843017614e+00
7.242319936752319443e+00
7.305000677108764329e+00
7.216758098602294780e+00
7.156141586303711222e+00
7.088995885848999201e+00
7.162767839431762873e+00
7.088167228698730504e+00
7.040792884826660547e+00
6.989178686141968022e+00
7.007455186843872141e+00
6.953539280891418706e+00
